<?xml version="1.0" standalone="no"?>
<!DOCTYPE svg PUBLIC "-//W3C//DTD SVG 1.1//EN" "http://www.w3.org/Graphics/SVG/1.1/DTD/svg11.dtd" >
<svg xmlns="http://www.w3.org/2000/svg">
<metadata>Generated by IcoMoon</metadata>
<defs>
<font id="icomoon" horiz-adv-x="1024">
<font-face units-per-em="1024" ascent="960" descent="-64" />
<missing-glyph horiz-adv-x="1024" />
<glyph unicode="&#x20;" horiz-adv-x="512" d="" />
<glyph unicode="&#xe900;" glyph-name="smartshar" horiz-adv-x="1007" d="M897.506 740.141c60.235 0 109.929 49.694 109.929 109.929s-49.694 109.929-109.929 109.929c-60.235 0-109.929-49.694-109.929-109.929 0-24.094 7.529-46.682 22.588-64.753l-144.565-135.529c-6.024 9.035-13.553 18.071-22.588 27.106-33.129 31.624-75.294 48.188-120.471 46.682-49.694-1.506-94.871-27.106-123.482-63.247l-85.835 93.365c13.553 16.565 22.588 37.647 22.588 60.235 0 52.706-42.165 94.871-94.871 94.871s-94.871-42.165-94.871-94.871 42.165-94.871 94.871-94.871c21.082 0 39.153 6.024 55.718 18.071l88.847-97.882c-12.047-22.588-19.576-46.682-21.082-73.788-1.506-39.153 10.541-78.306 36.141-109.929 9.035-10.541 15.059-21.082 21.082-33.129l-242.447-225.882c-19.576 15.059-43.671 25.6-70.776 25.6-60.235 0-108.424-48.188-108.424-108.424s48.188-108.424 108.424-108.424c60.235 0 108.424 48.188 108.424 108.424 0 24.094-7.529 46.682-21.082 64.753l234.918 218.353c3.012-13.553 4.518-25.6 4.518-39.153 0-48.188 36.141-87.341 82.824-93.365v-88.847c-60.235-6.024-108.424-57.224-108.424-118.965 0-66.259 54.212-118.965 118.965-118.965 66.259 0 118.965 54.212 118.965 118.965 0 61.741-46.682 112.941-108.424 118.965v88.847c46.682 6.024 82.824 45.176 82.824 93.365 0 7.529 0 13.553 1.506 21.082l118.965-129.506c-13.553-16.565-22.588-37.647-22.588-60.235 0-51.2 42.165-93.365 93.365-93.365s93.365 42.165 93.365 93.365c0 51.2-42.165 93.365-93.365 93.365-19.576 0-39.153-6.024-54.212-18.071l-131.012 143.059c6.024 16.565 13.553 33.129 25.6 46.682 24.094 28.612 37.647 66.259 37.647 103.906 0 25.6-6.024 49.694-16.565 70.776l149.082 138.541c22.588-16.565 46.682-27.106 73.788-27.106zM240.941 741.647c-39.153 0-70.776 31.624-70.776 70.776s31.624 70.776 70.776 70.776c39.153 0 70.776-31.624 70.776-70.776s-31.624-70.776-70.776-70.776zM108.424 29.365c-46.682 0-84.329 37.647-84.329 84.329s37.647 84.329 84.329 84.329 84.329-37.647 84.329-84.329-37.647-84.329-84.329-84.329zM816.188 256.753c39.153 0 70.776-31.624 70.776-70.776s-31.624-70.776-70.776-70.776c-39.153 0-70.776 31.624-70.776 70.776s31.624 70.776 70.776 70.776zM623.435 54.965c0-52.706-43.671-96.376-96.376-96.376s-96.376 43.671-96.376 96.376c0 52.706 43.671 96.376 96.376 96.376 54.212 0 96.376-43.671 96.376-96.376zM528.565 286.871c-34.635 0-64.753 25.6-69.271 58.729h140.047c-6.024-34.635-36.141-58.729-70.776-58.729zM638.494 469.082c-22.588-27.106-36.141-63.247-37.647-99.388h-58.729v99.388l79.812 79.812c4.518 4.518 4.518 12.047 0 16.565s-12.047 4.518-16.565 0l-72.282-72.282-72.282 72.282c-4.518 4.518-12.047 4.518-16.565 0s-4.518-12.047 0-16.565l75.294-75.294v-103.906h-58.729c-1.506 18.071-6.024 36.141-12.047 52.706 0 0 0 0 0 0-6.024 16.565-16.565 33.129-27.106 48.188-21.082 27.106-31.624 60.235-30.118 93.365 3.012 73.788 61.741 132.518 135.529 135.529 39.153 1.506 75.294-12.047 103.906-39.153s43.671-63.247 43.671-102.4c-4.518-33.129-16.565-64.753-36.141-88.847zM897.506 935.906c46.682 0 85.835-39.153 85.835-85.835s-39.153-85.835-85.835-85.835c-46.682 0-85.835 39.153-85.835 85.835 0 48.188 39.153 85.835 85.835 85.835zM528.565 749.176c6.024 0 12.047 6.024 12.047 12.047v64.753c0 6.024-6.024 12.047-12.047 12.047s-12.047-6.024-12.047-12.047v-66.259c0-4.518 4.518-10.541 12.047-10.541zM316.235 536.847c6.024 0 12.047 6.024 12.047 12.047s-6.024 12.047-12.047 12.047h-66.259c-6.024 0-12.047-6.024-12.047-12.047s6.024-12.047 12.047-12.047h66.259zM740.894 560.941c-6.024 0-12.047-6.024-12.047-12.047s6.024-12.047 12.047-12.047h66.259c6.024 0 12.047 6.024 12.047 12.047s-6.024 12.047-12.047 12.047h-66.259z" />
<glyph unicode="&#xe901;" glyph-name="view" horiz-adv-x="1247" d="M951.709 821.034c-9.826 9.826-23.863 16.844-39.304 16.844h-574.816c-15.441 0-29.478-5.615-39.304-16.143-9.826-9.826-16.844-24.565-16.844-39.304v-386.018c0-15.441 5.615-29.478 16.844-39.304 9.826-9.826 24.565-16.844 39.304-16.844h574.816c15.441 0 29.478 5.615 39.304 16.844 9.826 9.826 16.844 24.565 16.844 39.304v385.316c0 14.739-5.615 29.478-16.844 39.304zM337.59 387.29v0-1.404c-2.807 0-5.615 0.702-7.72 3.509-1.404 1.404-3.509 4.211-3.509 7.72v25.267l139.668 140.37 118.613-119.315 56.148-56.148h-303.199zM923.635 395.712c0-2.807-0.702-5.615-3.509-7.72-1.404-1.404-4.913-3.509-7.72-3.509h-207.748v0.702l-72.291 72.992 160.724 161.426 130.544-131.246v-92.644zM924.337 552.225h-0.702l-114.402 115.103c-8.422 8.422-22.459 9.124-32.285 0l-176.164-177.568-118.613 119.315c-8.422 8.422-22.459 9.124-32.285 0l-122.824-124.228v296.883c0 3.509 0.702 5.615 3.509 7.72 1.404 1.404 4.913 3.509 7.72 3.509h574.816c2.807 0 5.615-0.702 7.72-3.509 1.404-1.404 3.509-4.913 3.509-7.72v-229.505zM469.538 754.358c-20.354 0-36.496-16.143-36.496-36.496s16.143-36.496 36.496-36.496c20.354 0 36.496 16.143 36.496 36.496s-16.844 36.496-36.496 36.496zM1174.898 960h-1101.905c-40.005 0-72.992-32.987-72.992-72.992v-682.901c0-40.005 32.987-72.992 72.992-72.992h409.881l-41.409-164.935c-2.106-7.019 0-14.739 4.211-21.056 4.913-5.615 11.931-9.124 18.95-9.124h317.236c13.335 0 24.565 11.23 24.565 24.565 0 2.807-0.702 4.913-1.404 7.72l-40.707 163.531h409.881c40.005 0 72.992 32.987 72.992 72.992v682.199c0.702 40.707-32.285 72.992-72.291 72.992zM496.208-14.87l36.496 145.985h181.779l36.496-145.985h-254.772zM1199.463 204.107c0-13.335-11.23-24.565-24.565-24.565h-1101.905c-13.335 0-24.565 11.23-24.565 24.565v24.565h1151.035v-24.565zM1199.463 277.801h-1151.035v609.206c0 13.335 11.23 24.565 24.565 24.565h1101.905c13.335 0 24.565-11.23 24.565-24.565v-609.206z" />
<glyph unicode="&#xe902;" glyph-name="athom" horiz-adv-x="1023" d="M911.638 737.014c61.394 0 111.783 50.389 111.783 111.783 0.579 61.394-49.231 111.204-111.204 111.204-61.394 0-111.783-49.81-111.783-111.783 0-19.113 4.633-37.647 13.321-53.285l-183.023-183.023c-24.905 19.692-56.76 31.276-90.932 31.276s-66.027-11.584-90.932-31.276l-143.059 143.059c6.371 11.005 10.425 23.747 10.425 37.647 0 41.122-33.593 74.715-74.715 74.715s-74.715-33.593-74.715-74.715 33.593-74.715 74.715-74.715c13.9 0 26.643 4.054 37.647 10.425l143.059-143.059c-19.692-25.484-31.276-56.76-31.276-90.932s11.584-66.027 31.276-90.932l-235.729-235.729c-19.692 17.955-46.335 28.959-74.715 28.959-61.394 0-111.783-49.81-111.783-111.783 0-61.394 49.81-111.783 111.783-111.783 61.394 0 111.783 49.81 111.783 111.783 0 19.113-4.633 37.647-13.321 53.285l238.624 239.204c20.851-16.217 45.176-26.643 72.398-30.118v-189.394c-52.706-8.688-93.249-54.443-93.249-110.045 0-61.394 50.389-111.783 111.783-111.783s111.783 49.81 111.783 111.783c0 55.023-40.543 101.357-93.249 110.045v189.394c27.222 3.475 52.127 13.9 72.398 30.118l142.48-143.059c-6.371-11.005-10.425-23.747-10.425-37.647 0-41.122 33.593-74.715 74.715-74.715s74.715 33.593 74.715 74.715c0 41.122-33.593 74.715-74.715 74.715-13.9 0-26.643-4.054-37.647-10.425l-143.059 143.059c19.692 25.484 31.276 56.76 31.276 90.932s-11.584 66.027-31.276 90.932l180.127 180.127c19.692-17.955 46.335-28.959 74.715-28.959zM912.217 923.511c41.122 0 74.715-33.593 74.715-74.715 0-41.701-33.593-74.715-74.715-74.715s-74.715 33.593-74.715 74.715c0 41.122 33.593 74.715 74.715 74.715zM242.1 755.548c-20.851-0.579-37.068 16.217-37.068 37.068 0 20.271 16.796 37.068 37.068 37.068s37.068-16.796 37.068-37.068-16.796-37.068-37.068-37.068zM111.783 10.136c-41.122 0-74.715 33.593-74.715 74.715s33.593 74.715 74.715 74.715c41.122 0 74.715-33.593 74.715-74.715-0.579-41.122-33.593-74.715-74.715-74.715zM838.081 233.701c20.271 0 37.068-16.796 37.068-37.068s-16.796-37.068-37.068-37.068-37.068 16.796-37.068 37.068 16.796 37.068 37.068 37.068zM614.516 47.783c0-41.122-33.593-74.715-74.715-74.715s-74.715 33.593-74.715 74.715c0 41.122 33.593 74.715 74.715 74.715 41.122-0.579 74.715-33.593 74.715-74.715zM539.801 382.552c-61.394 0-111.783 50.389-111.783 111.783s50.389 111.783 111.783 111.783c61.394 0 111.783-50.389 111.783-111.783s-49.81-111.783-111.783-111.783z" />
<glyph unicode="&#xe903;" glyph-name="tools" horiz-adv-x="1117" d="M966.847 809.632c-96.617 96.617-225.212 150.368-361.972 150.368-139.482 0-269.438-55.112-366.735-154.45-10.886-10.886-10.206-28.577 0.68-38.783 10.886-10.886 28.577-10.206 38.783 0.68 87.091 89.132 202.759 138.121 327.272 138.121 252.428 0 457.228-204.8 457.228-456.548 0-252.428-204.8-457.228-457.228-457.228s-457.228 204.8-457.228 457.228v5.443l45.587-45.587c5.443-5.443 12.247-8.165 19.732-8.165 6.804 0 14.288 2.722 19.732 8.165 10.886 10.886 10.886 28.577 0 38.783l-93.215 91.854c-10.886 10.886-28.577 10.886-38.783 0l-92.534-92.534c-10.886-10.886-10.886-28.577 0-38.783 5.443-5.443 12.247-8.165 19.732-8.165 6.804 0 14.288 2.722 19.732 8.165l45.587 45.587v-5.443c0-136.76 53.071-265.355 150.368-361.972 96.617-96.617 225.212-150.368 361.972-150.368s265.355 53.071 361.972 150.368c96.617 96.617 149.688 225.212 149.688 361.972-0.68 136.080-53.751 264.675-150.368 361.292zM768.17 247.623c-19.732-19.732-22.453-48.989-6.804-64.638 16.33-16.33 44.906-12.928 64.638 6.804s23.814 49.669 7.484 65.318c-14.969 15.649-45.587 12.247-65.318-7.484zM827.365 203.397c-6.804 0-14.288-7.484-14.288-14.288-5.443 4.082-15.649 0.68-19.051-7.484-1.361 6.804-10.886 7.484-17.010 3.402 1.361 6.804-4.763 12.928-12.247 12.247 4.082 5.443 4.082 14.288-2.041 17.010 6.124 3.402 10.206 12.928 6.124 18.371 6.804 0 14.288 7.484 14.288 14.288 5.443-4.082 14.969 0 18.371 6.124 2.041-5.443 10.206-6.804 17.010-2.041-1.361-7.484 5.443-12.928 11.567-12.247-4.082-5.443-2.041-14.288 3.402-17.010-6.804-2.722-10.206-12.928-6.124-18.371zM413.002 574.894c-12.247-4.082-17.69 1.361-21.773 8.165l-15.649 37.422c-4.082-2.722-6.124-6.124-7.484-8.845-3.402-21.092-2.041-59.195 17.69-74.163 5.443-4.082 12.928-6.124 23.134-4.763 22.453-7.484 50.35-15.649 68.040-33.34l95.256-95.256c-2.041-2.722-3.402-4.763-4.763-6.804-6.124-9.526-21.092-31.298-27.216-40.824-6.124-10.886-28.577-48.989-36.061-60.555-7.484-12.928-26.536-35.381-30.618-42.185-5.443-6.124-34.7-42.865-37.422-46.267-2.041-2.041-1.361-3.402-2.041-6.124 1.361-2.041 2.722-5.443 4.763-7.484 3.402-4.082 9.526-7.484 18.371-13.608s12.247-7.484 16.33-10.206c3.402-2.722 8.165-4.763 12.247-5.443s6.124 1.361 9.526 6.124c2.722 5.443 21.773 42.185 27.896 51.030 4.763 8.165 21.773 36.742 25.855 42.185 4.082 6.124 35.381 48.308 42.865 57.834 6.124 8.845 18.371 27.896 24.494 38.102l106.142-106.142c10.206-10.206 19.051-25.855 27.896-42.865-0.68 12.247 6.124 27.216 16.33 38.102 11.567 11.567 25.855 17.69 38.783 17.69-17.69 8.165-33.34 17.010-43.546 26.536l-116.348 116.348c2.041 3.402 4.082 6.804 5.443 8.165 2.041 3.402-0.68 5.443-0.68 5.443 6.804 10.886 34.7 57.153 40.144 65.318 6.124 9.526 14.969 22.453 21.092 29.938 4.763 7.484 21.773 27.216 25.855 32.659 4.763 6.124 10.886 15.649 10.886 15.649s4.763-0.68 6.124 1.361c2.041 2.722 8.165 8.165 12.247 14.969 4.763 4.082 7.484 6.124 12.247 8.845 4.082 1.361 8.845-2.041 14.288-5.443 4.763-3.402 8.845-8.845 12.928-12.247s8.165-8.165 8.845-10.886c2.041-2.041 3.402-5.443 4.763-6.124 3.402-2.041 16.33-12.928 19.051-14.969 2.041-1.361 5.443-1.361 7.484 0 1.361 1.361 10.206 8.165 13.608 12.928s6.804 10.886 9.526 14.288c1.361 2.041 3.402 8.845 0 11.567-2.722 3.402-14.969 10.886-17.69 12.928-4.082 2.041-10.206 2.722-12.928 3.402-3.402 1.361-10.206 5.443-13.608 8.165-4.082 2.722-8.845 10.886-11.567 14.969-2.722 3.402-3.402 8.165-9.526 13.608-4.763 5.443-29.257 23.134-40.144 29.257-16.33 8.845-36.061 14.288-52.391 14.969-17.010 1.361-25.855 0.68-43.546-3.402-17.69-2.722-40.824-10.206-44.906-11.567-2.722-1.361-10.206-4.082-12.247-5.443-2.041-2.041-0.68-3.402 2.041-4.763 1.361 0 7.484-2.041 10.886 0.68 4.082 0.68 22.453 3.402 36.742 4.082 12.247 0 19.732 0 25.855-0.68 7.484-2.041 19.732-4.082 25.175-7.484 8.165-5.443 6.804-14.288 4.082-21.092-2.041-6.804-9.526-19.732-12.247-23.134-1.361-4.082 2.041-6.804 2.041-6.804-2.041-4.082-7.484-12.928-10.886-19.051s-13.608-25.855-19.051-35.381c-4.763-8.165-14.969-23.134-19.732-30.618-4.082-7.484-44.906-61.916-44.906-61.916s-2.041 1.361-4.763-2.041c0 0 0 0 0-0.68l-89.813 89.813c-17.69 17.69-23.814 34.020-25.855 60.555 0-1.361-0.68-2.041-1.361-4.082 1.361 6.804 1.361 13.608 0 18.371-5.443 23.814-29.257 40.824-48.308 43.546-2.722 2.041-5.443 0.68-8.845-2.041l15.649-30.618c6.124-11.567 7.484-17.010-2.722-28.577-8.845-11.567-21.092-18.371-31.979-21.092zM763.407 275.519l-22.453-22.453-14.969 14.969 22.453 22.453 14.969-14.969zM721.903 293.89c-4.763-4.763-13.608-6.804-18.371-2.041l-80.287 80.287c4.763 8.845 11.567 20.412 15.649 26.536l85.73-85.73c4.763-4.763 2.041-13.608-2.722-19.051zM506.897 508.896c4.763 4.763 12.928 8.845 18.371 3.402l72.803-72.803c-0.68-0.68-2.041-2.041-2.722-3.402-2.722-4.082-8.845-12.247-14.969-21.092l-76.205 76.205c-4.763 4.763-2.041 12.928 2.722 17.69z" />
<glyph unicode="&#xe904;" glyph-name="autotags" horiz-adv-x="1606" d="M771.413 718.456h-649.537c-0.060 0-0.13 0-0.201 0-63.47 0-114.935 51.395-115.049 114.838v0.011c0.228 63.367 51.65 114.648 115.049 114.648 0.071 0 0.142 0 0.212 0h649.526c0 0 0 0 0.001 0 63.399 0 114.821-51.281 115.049-114.626v-0.022c-0.114-63.454-51.58-114.849-115.049-114.849 0 0 0 0 0 0v0zM121.876 917.434c-0.060 0-0.13 0-0.201 0-46.574 0-84.329-37.756-84.329-84.329 0 0 0 0 0 0v0c0.114-46.487 37.826-84.129 84.329-84.129 0 0 0 0 0 0h649.738c46.574 0 84.329 37.756 84.329 84.329v0c-0.114 46.487-37.826 84.129-84.329 84.129 0 0 0 0 0 0v0zM682.064 781.704c-0.031 0-0.068 0-0.105 0-8.428 0-15.26 6.832-15.26 15.26 0 4.24 1.729 8.076 4.521 10.842l25.501 25.501-25.5 25.299c-2.793 2.767-4.522 6.603-4.522 10.842s1.729 8.076 4.521 10.841l0.001 0.001c6.024 6.024 15.661 6.024 21.484 0l25.7-25.5 25.5 25.5c6.024 6.024 15.661 6.024 21.685 0s6.024-15.661 0-21.685l-25.5-25.299 25.5-25.5c2.793-2.767 4.522-6.603 4.522-10.843 0-8.428-6.832-15.26-15.26-15.26-0.037 0-0.074 0-0.111 0h0.006c-0.031 0-0.068 0-0.104 0-4.188 0-7.982 1.687-10.739 4.419l-25.499 25.499-25.7-25.5c-2.734-2.708-6.489-4.39-10.636-4.417h-0.005zM1215.749 466.271h-1093.873c-0.060 0-0.131 0-0.201 0-63.399 0-114.821 51.281-115.049 114.626v0.022c0.114 63.454 51.58 114.849 115.049 114.849 0.071 0 0.141 0 0.212 0h1093.862c0 0 0 0 0 0 63.469 0 114.935-51.395 115.049-114.838v-0.011c-0.228-63.367-51.65-114.648-115.049-114.648 0 0-0.001 0-0.001 0v0zM121.876 665.048c-0.060 0-0.13 0-0.201 0-46.503 0-84.215-37.641-84.329-84.118v-0.011c0-46.574 37.756-84.329 84.329-84.329h1094.074c46.574 0 84.329 37.756 84.329 84.329v0c0 46.574-37.756 84.329-84.329 84.329v0zM1147.081 529.518c-0.031 0-0.068 0-0.105 0-8.428 0-15.26 6.832-15.26 15.26 0 4.24 1.729 8.076 4.521 10.842l0.001 0.001 25.5 25.299-25.5 25.5c-2.793 2.767-4.522 6.603-4.522 10.842s1.729 8.076 4.521 10.841l0.001 0.001c6.024 6.024 15.661 6.024 21.685 0l25.5-25.5 25.5 25.5c6.024 6.024 15.661 6.024 21.685 0s6.024-15.661 0-21.685l-25.5-25.5 25.5-25.5c2.793-2.767 4.522-6.603 4.522-10.843 0-8.428-6.832-15.26-15.26-15.26-0.037 0-0.074 0-0.111 0h0.006c-4.253 0.027-8.089 1.79-10.839 4.615l-25.503 25.503-25.5-25.5c-2.756-2.731-6.55-4.418-10.738-4.418-0.037 0-0.073 0-0.11 0h0.006zM1215.749-48.138h-1093.873c-0.060 0-0.131 0-0.201 0-63.399 0-114.821 51.281-115.049 114.626v0.022c0.114 63.454 51.58 114.849 115.049 114.849 0.071 0 0.141 0 0.212 0h1093.862c0 0 0 0 0 0 63.469 0 114.935-51.395 115.049-114.838v-0.011c-0.228-63.367-51.65-114.648-115.049-114.648 0 0-0.001 0-0.001 0v0zM121.876 150.638c-0.060 0-0.13 0-0.201 0-46.503 0-84.215-37.641-84.329-84.118v-0.011c0.114-46.487 37.826-84.129 84.329-84.129 0 0 0 0 0 0h1094.074c46.574 0 84.329 37.756 84.329 84.329v0c-0.114 46.487-37.826 84.129-84.329 84.129 0 0 0 0 0 0v0zM1147.081 15.109c-0.031 0-0.068 0-0.105 0-8.428 0-15.26 6.832-15.26 15.26 0 4.24 1.729 8.076 4.521 10.842l0.001 0.001 25.5 25.299-25.5 25.5c-2.793 2.767-4.522 6.603-4.522 10.842s1.729 8.076 4.521 10.841l0.001 0.001c6.024 6.024 15.661 6.024 21.685 0l25.5-25.5 25.5 25.5c6.024 6.024 15.661 6.024 21.685 0s6.024-15.661 0-21.685l-25.5-25.5 25.5-25.299c2.793-2.767 4.522-6.603 4.522-10.843 0-8.428-6.832-15.26-15.26-15.26-0.037 0-0.074 0-0.111 0h0.006c-0.031 0-0.068 0-0.104 0-4.188 0-7.982 1.687-10.739 4.419l-25.499 25.499-25.5-25.5c-2.756-2.731-6.55-4.418-10.738-4.418-0.037 0-0.073 0-0.11 0h0.006zM1491.024 718.456h-469.835c0 0 0 0 0 0-63.469 0-114.935 51.395-115.049 114.838v0.011c0.228 63.367 51.65 114.648 115.049 114.648 0.071 0 0.142 0 0.212 0h469.624c0.060 0 0.131 0 0.201 0 63.399 0 114.821-51.281 115.049-114.626v-0.022c-0.114-63.454-51.58-114.849-115.049-114.849-0.071 0-0.141 0-0.212 0h0.011zM1021.189 917.434c-46.574 0-84.329-37.756-84.329-84.329v0c0.114-46.487 37.826-84.129 84.329-84.129 0 0 0 0 0 0h469.835c46.574 0 84.329 37.756 84.329 84.329v0c-0.114 46.487-37.826 84.129-84.329 84.129 0 0 0 0 0 0v0zM1411.313 781.704c-0.031 0-0.068 0-0.105 0-8.428 0-15.26 6.832-15.26 15.26 0 4.24 1.729 8.076 4.521 10.842l25.501 25.501-25.5 25.299c-2.793 2.767-4.522 6.603-4.522 10.842s1.729 8.076 4.521 10.841l0.001 0.001c6.024 6.024 15.661 6.024 21.685 0l25.5-25.5 25.7 25.5c6.024 6.024 15.661 6.024 21.484 0 6.024-6.024 6.024-15.661 0-21.685l-25.5-25.299 25.5-25.5c2.793-2.767 4.522-6.603 4.522-10.843 0-8.394-6.777-15.205-15.159-15.259h-0.005c-0.031 0-0.068 0-0.104 0-4.188 0-7.982 1.687-10.739 4.419l0.001-0.001-25.7 25.5-25.5-25.5c-2.756-2.731-6.55-4.418-10.738-4.418-0.037 0-0.073 0-0.11 0h0.006zM771.413 214.689h-649.537c-0.060 0-0.131 0-0.201 0-63.399 0-114.821 51.281-115.049 114.626v0.022c0.114 63.454 51.58 114.849 115.049 114.849 0.071 0 0.141 0 0.212 0h649.526c0 0 0 0 0 0 63.469 0 114.935-51.395 115.049-114.838v-0.011c-0.228-63.367-51.65-114.648-115.049-114.648 0 0-0.001 0-0.001 0v0zM121.876 413.465c-0.060 0-0.13 0-0.201 0-46.503 0-84.215-37.641-84.329-84.118v-0.011c0-46.574 37.756-84.329 84.329-84.329v0h649.738c46.574 0 84.329 37.756 84.329 84.329v0c0 46.574-37.756 84.329-84.329 84.329v0zM682.064 277.735c-0.031 0-0.068 0-0.105 0-8.428 0-15.26 6.832-15.26 15.26 0 4.24 1.729 8.076 4.521 10.842l25.501 25.501-25.5 25.5c-2.793 2.767-4.522 6.603-4.522 10.842s1.729 8.076 4.521 10.841l0.001 0.001c6.024 6.024 15.661 6.024 21.484 0l25.7-25.5 25.5 25.5c6.024 6.024 15.661 6.024 21.685 0s6.024-15.661 0-21.685l-25.5-25.5 25.5-25.5c2.793-2.767 4.522-6.603 4.522-10.843 0-8.428-6.832-15.26-15.26-15.26-0.037 0-0.074 0-0.111 0h0.006c-4.253 0.027-8.089 1.79-10.839 4.615l-25.503 25.503-25.7-25.5c-2.708-2.782-6.462-4.534-10.626-4.618h-0.016zM1491.024 214.689h-469.835c0 0 0 0-0.001 0-63.399 0-114.821 51.281-115.049 114.626v0.022c0.114 63.454 51.58 114.849 115.049 114.849 0.071 0 0.141 0 0.212 0h469.624c0.060 0 0.13 0 0.201 0 63.47 0 114.935-51.395 115.049-114.838v-0.011c-0.228-63.367-51.65-114.648-115.049-114.648-0.071 0-0.142 0-0.212 0h0.011zM1021.189 413.465c0 0 0 0 0 0-46.503 0-84.215-37.641-84.329-84.118v-0.011c0-46.574 37.756-84.329 84.329-84.329h469.835c46.574 0 84.329 37.756 84.329 84.329v0c0 46.574-37.756 84.329-84.329 84.329v0zM1411.313 277.735c-0.031 0-0.068 0-0.105 0-8.428 0-15.26 6.832-15.26 15.26 0 4.24 1.729 8.076 4.521 10.842l25.501 25.501-25.5 25.5c-2.793 2.767-4.522 6.603-4.522 10.842s1.729 8.076 4.521 10.841l0.001 0.001c6.024 6.024 15.661 6.024 21.685 0l25.5-25.5 25.7 25.5c6.024 6.024 15.661 6.024 21.484 0 6.024-6.024 6.024-15.661 0-21.685l-25.5-25.5 25.5-25.5c2.793-2.767 4.522-6.603 4.522-10.843 0-8.394-6.777-15.205-15.159-15.259h-0.005c-4.253 0.027-8.089 1.79-10.839 4.615l-0.003 0.003-25.7 25.5-25.5-25.5c-2.754-2.828-6.59-4.591-10.837-4.618h-0.005z" />
<glyph unicode="&#xe905;" glyph-name="devices" horiz-adv-x="1195" d="M1182.208 104.107c0-0.853 0-1.707-0.341-2.56v-18.773c-0.194-32.749-26.786-59.222-59.562-59.222-0.060 0-0.121 0-0.181 0h-289.783v-28.16c-0.097-32.822-26.727-59.392-59.562-59.392-0.060 0-0.12 0-0.18 0h-183.628c-0.051 0-0.111 0-0.171 0-32.836 0-59.466 26.57-59.562 59.383v168.969h-308.907c-0.102-0.003-0.221-0.004-0.341-0.004-7.541 0-13.653 6.113-13.653 13.653 0 0.002 0 0.003 0 0.005v0c0 7.509 6.144 13.653 13.824 13.653h99.328l42.496 47.787h-302.933c-0.051 0-0.111 0-0.171 0-32.836 0-59.466 26.57-59.562 59.383v601.95c0.194 32.749 26.786 59.222 59.562 59.222 0.060 0 0.121 0 0.181 0h980.471c32.939 0 59.733-26.453 59.733-59.221v-287.403h22.869c32.939 0 59.733-26.453 59.733-59.221v-25.6c0.154-0.77 0.242-1.655 0.242-2.56s-0.088-1.79-0.256-2.646l0.014 0.086v-416.768l0.341-2.56zM588.971 367.104c-17.749 0-32.085-14.165-32.085-31.915v-16.725h247.979v16.725c0 17.749-14.507 31.915-32.085 31.915zM556.885 32.597h247.979v258.56h-247.979v-38.059zM832.341 117.931h322.048v394.411h-453.12v-117.76h71.509c32.768 0 59.733-26.624 59.733-59.392zM1122.133 586.069h-388.779c-17.749 0-32.085-14.336-32.085-31.915v-14.507h453.12v14.507c0 17.579-14.507 31.915-32.256 31.915zM1071.787 613.376v249.344h-1044.992v-522.923h502.784c2.717 30.671 28.256 54.548 59.385 54.613h84.658v159.744c0.194 32.749 26.786 59.222 59.562 59.222 0.060 0 0.121 0 0.181 0h-0.009zM26.795 900.779v-10.581h1044.992v10.581c0 17.579-14.507 31.915-32.256 31.915h-980.48c-17.749 0-32.256-14.336-32.256-31.915zM59.051 266.923h470.016v45.568h-502.443v-13.653c0-17.749 14.507-31.915 32.256-31.915zM529.237 191.659v47.787h-130.56l-42.496-47.787zM804.864-4.608v9.899h-247.979v-9.899c0-17.749 14.336-32.085 32.085-32.085h183.808c17.579 0 32.085 14.336 32.085 32.085zM1154.389 82.944v7.509h-322.048v-39.424h289.792c17.749 0 32.256 14.336 32.256 31.915z" />
<glyph unicode="&#xe906;" glyph-name="lock" horiz-adv-x="1070" d="M499.773 300.361c0.003-0.092 0.004-0.2 0.004-0.309 0-2.841-1.107-5.423-2.913-7.338l0.005 0.005c-1.987-1.987-4.891-3.057-8.864-3.057h-66.484c-0.289-0.021-0.627-0.033-0.967-0.033-3.769 0-7.195 1.467-9.739 3.861l0.007-0.007c-2.265 2.221-3.669 5.313-3.669 8.732 0 0.046 0 0.093 0.001 0.139v-0.007c0 2.293 0.764 5.196 2.445 8.864 1.528 3.668 3.362 6.419 5.349 8.559 7.947 8.406 15.284 15.742 21.703 21.703 6.419 6.113 11.004 10.087 13.755 11.921 4.891 3.515 9.17 7.183 12.227 10.699 3.362 3.515 5.961 7.183 7.642 11.004s2.598 7.489 2.598 11.157c0 3.821-0.917 7.336-2.751 10.393s-4.432 5.502-7.642 7.336c-2.882 1.542-6.304 2.448-9.937 2.448-0.106 0-0.213-0.001-0.319-0.002h0.016c-7.947 0-14.061-3.515-18.646-10.546-0.611-0.917-1.528-3.362-3.057-7.489s-3.057-7.336-4.738-9.476c-1.834-2.14-4.432-3.362-7.795-3.362-0.119-0.005-0.26-0.008-0.401-0.008-2.84 0-5.406 1.174-7.239 3.062l-0.002 0.002c-1.813 1.998-2.923 4.664-2.923 7.588 0 0.234 0.007 0.466 0.021 0.697l-0.002-0.032c0.472 16.006 10.717 29.502 24.953 34.761l0.265 0.086c5.808 2.293 12.38 3.362 20.021 3.362 9.17 0 17.118-1.528 23.69-4.279 8.563-4.018 15.137-11.088 18.412-19.776l0.081-0.245c1.701-4.261 2.688-9.199 2.688-14.367 0-7.502-2.079-14.518-5.692-20.505l0.1 0.178c-3.668-6.266-7.489-11.157-11.31-14.672s-10.24-9.17-19.41-16.506c-9.17-7.642-15.284-13.45-18.646-17.576-1.528-1.681-2.904-3.668-4.432-6.113h47.226c4.585 0 8.253-0.917 10.699-2.904 2.445-1.834 3.668-4.585 3.668-7.947zM600.95 366.080c2.14-1.987 3.057-4.432 3.057-7.642 0-3.057-0.917-5.502-3.057-7.336-1.987-1.834-5.044-2.751-9.17-2.751h-44.17v-44.322c0-5.655-1.223-9.934-3.668-12.533-2.303-2.541-5.615-4.131-9.299-4.131-0.116 0-0.231 0.002-0.346 0.005h0.017c-0.143-0.006-0.31-0.009-0.478-0.009-3.686 0-7.001 1.592-9.294 4.125l-0.010 0.011c-2.445 2.751-3.668 6.878-3.668 12.533v103.623c0 3.821 0.459 7.030 1.528 9.476 1.101 2.469 3.034 4.401 5.434 5.475l0.068 0.027c2.445 1.070 5.502 1.528 9.323 1.528h63.274c4.279 0 7.489-0.764 9.629-2.751 1.987-1.987 3.057-4.585 3.057-7.642s-1.070-5.655-3.057-7.642c-2.14-1.834-5.349-2.904-9.629-2.904h-52.881v-34.388h44.322c3.974 0 7.030-0.917 9.17-2.751zM728.568 314.116c2.751-6.419 4.127-11.31 4.127-14.214 0-3.057-1.376-6.113-3.821-8.712-2.282-2.36-5.477-3.825-9.013-3.825-0.109 0-0.218 0.001-0.326 0.004h0.016c-0.113-0.004-0.246-0.006-0.38-0.006-3.559 0-6.729 1.667-8.772 4.262l-0.018 0.024c-1.29 1.765-2.419 3.779-3.294 5.923l-0.069 0.19-3.057 7.183-6.266 16.812h-53.951l-6.266-17.27c-2.445-6.725-4.585-11.31-6.266-13.755-1.834-2.293-4.585-3.362-8.712-3.362-0.002 0-0.003 0-0.005 0-3.459 0-6.592 1.402-8.859 3.668v0c-2.395 2.099-3.916 5.146-3.974 8.549v0.010c0 1.834 0.306 3.821 0.917 5.808 0.611 1.834 1.528 4.585 3.057 8.1l33.93 87.422 3.362 9.17c1.528 3.515 2.904 6.419 4.432 8.712s3.515 4.127 6.113 5.655c2.445 1.528 5.502 2.14 9.17 2.14s6.878-0.764 9.323-2.14c2.598-1.528 4.585-3.362 6.113-5.655 1.528-2.14 2.751-4.585 3.821-7.183l4.127-10.546zM690.359 342.238l-19.869 55.632-19.716-55.632zM1058.235 449.528c0-276.327-221.153-501.301-493.201-501.301-257.987 0-470.429 202.66-491.367 459.424l-40.807-73.82c-3.21-5.655-10.24-7.642-15.895-4.432-3.561 2.106-5.912 5.926-5.912 10.296 0 2.11 0.548 4.093 1.51 5.812l-0.031-0.060 60.829 110.042 1.223 1.376 0.611 0.917 0.306 0.153c0.917 0.917 1.987 1.528 3.057 2.14l0.459 0.306c1.167 0.518 2.523 0.849 3.948 0.916l0.025 0.001h1.376c0.764-0.153 1.528 0 2.14-0.306l0.611-0.306 1.528-0.611 2.14-1.528 0.764-0.459 88.339-85.894c4.585-4.432 4.585-11.921 0.306-16.506-2.099-2.257-5.086-3.665-8.402-3.665-3.090 0-5.894 1.222-7.955 3.21l0.003-0.003-67.859 65.872c14.519-250.192 219.319-449.337 469.206-449.337 259.057 0 469.817 214.429 469.817 477.765 0 263.489-210.761 477.765-469.97 477.765-160.66-0.428-302.241-81.721-386.24-205.308l-1.046-1.632c-2.086-3.088-5.573-5.091-9.529-5.091-2.438 0-4.698 0.761-6.556 2.059l0.037-0.025c-3.074 2.185-5.056 5.734-5.056 9.746 0 2.462 0.747 4.751 2.026 6.65l-0.027-0.043c89.261 131.452 237.895 216.78 406.482 217.18h0.061c271.895 0 493.048-224.821 493.048-501.301zM741.865 630.333v-98.273h86.658c6.419 0 11.616-5.349 11.616-11.768v-312.702c0-6.572-5.196-11.768-11.616-11.768h-519.795c0 0-0.001 0-0.001 0-6.415 0-11.616 5.2-11.616 11.616 0 0.054 0 0.107 0.001 0.161v-0.008 312.702c0 6.419 5.196 11.768 11.616 11.768h86.811v98.426c0 97.051 77.641 176.067 173.163 176.067 95.37 0 173.010-79.016 173.010-176.067zM418.77 532.060h299.864v98.426c0.003 0.365 0.005 0.797 0.005 1.229 0 83.083-66.964 150.526-149.863 151.301l-0.074 0.001c-82.973-0.776-149.937-68.218-149.937-151.301 0-0.432 0.002-0.864 0.005-1.295v0.066zM817.060 508.523h-496.716v-289.165h496.716z" />
<glyph unicode="&#xe907;" glyph-name="mousedown" horiz-adv-x="559" d="M558.545 773.26v-426.356c0.002-0.333 0.003-0.727 0.003-1.122 0-102.060-82.367-184.882-184.253-185.618h-77.708v-164.212l83.037 84.154c3.116 3.206 7.47 5.196 12.288 5.196s9.172-1.989 12.284-5.192l0.004-0.004c6.703-6.889 6.703-18.060 0-24.948l-112.826-114.129c-1.676-1.676-3.537-2.979-5.585-3.724h-0.186c-1.901-0.791-4.108-1.25-6.423-1.25s-4.523 0.459-6.537 1.292l0.114-0.042h-0.186c-1.942 0.858-3.606 1.985-5.032 3.357l0.006-0.005-0.559 0.372-112.826 114.129c-3.181 3.197-5.148 7.606-5.148 12.474s1.967 9.277 5.149 12.475l-0.001-0.001c3.116 3.206 7.47 5.196 12.288 5.196s9.172-1.989 12.284-5.192l0.004-0.004 83.037-84.154v164.212h-77.638c-101.655 0-184.32 83.782-184.32 186.74v426.356c-0.002 0.278-0.002 0.607-0.002 0.935 0 102.060 82.367 184.881 184.252 185.618h190.162c101.655 0 184.32-83.782 184.32-186.554zM523.916 773.26c0.001 0.167 0.001 0.365 0.001 0.563 0 82.896-66.884 150.171-149.631 150.803h-190.152c-82.807-0.632-149.691-67.907-149.691-150.803 0-0.198 0-0.396 0.001-0.593v0.031-426.356c-0.001-0.222-0.002-0.486-0.002-0.749 0-82.896 66.884-150.171 149.632-150.803h77.698v266.24c1.286 8.508 8.548 14.955 17.315 14.955s16.029-6.447 17.303-14.858l0.012-0.097v-266.24h77.824c82.808 0.632 149.692 67.907 149.692 150.803 0 0.263-0.001 0.526-0.002 0.789v-0.041zM385.21 688.733c0.001-0.166 0.001-0.363 0.001-0.56 0-58.723-47.446-106.364-106.095-106.681h-0.030c-58.598 0.421-105.939 48.022-105.939 106.68 0 0.197 0.001 0.395 0.002 0.592v-0.030c-0.001 0.166-0.001 0.363-0.001 0.56 0 58.723 47.446 106.364 106.095 106.681h0.030c58.275 0 105.937-48.035 105.937-107.241zM350.394 688.733c0.001 0.112 0.001 0.244 0.001 0.376 0 39.429-31.753 71.442-71.083 71.862h-0.040c-39.45-0.316-71.309-32.369-71.309-71.864 0-0.132 0-0.263 0.001-0.395v0.020c0-0.056 0-0.122 0-0.188 0-39.494 31.858-71.548 71.278-71.864h0.030c39.369 0.421 71.122 32.433 71.122 71.862 0 0.067 0 0.134 0 0.2v-0.010z" />
<glyph unicode="&#xe908;" glyph-name="visualsearch" horiz-adv-x="1131" d="M1107.296-37.712c4.891-5.044 4.891-13.144 0-18.187-2.3-2.324-5.491-3.763-9.017-3.763s-6.717 1.439-9.016 3.762l-0.001 0.001-132.967 134.19c-38.947-35.452-90.949-57.161-148.022-57.161-0.134 0-0.268 0-0.403 0h0.021c-123.441 0.952-223.141 101.241-223.141 224.815 0 0.163 0 0.327 0.001 0.49v-0.025c0 0.138 0 0.301 0 0.465 0 123.574 99.7 223.863 223.050 224.815l0.091 0.001c59.606 0 115.544-23.384 157.727-66.025 40.277-40.956 65.144-97.177 65.144-159.206 0-57.528-21.389-110.060-56.648-150.078l0.215 0.249zM807.737 46.959c52.881 0 102.4 20.786 139.845 58.383 35.714 36.279 57.765 86.098 57.765 141.067s-22.051 104.789-57.791 141.094l0.026-0.026c-35.473 36.138-84.835 58.536-139.43 58.536-0.092 0-0.184 0-0.276 0h0.014c-109.326-0.866-197.617-89.692-197.617-199.139 0-0.11 0-0.219 0-0.329v0.017c0-0.138-0.001-0.301-0.001-0.464 0-109.448 88.291-198.274 197.535-199.139l0.082-0.001zM1120.287 886.944v-646.19c0-7.183-5.808-12.991-12.838-12.991-7.025 0.086-12.686 5.8-12.686 12.837 0 0.054 0 0.108 0.001 0.162v-0.008 619.902h-1057.013v-604.771h475.625c7.030 0 12.838-5.655 12.838-12.838 0-7.030-5.808-12.838-12.838-12.838h-475.625v-5.044c-0.001-0.091-0.001-0.198-0.001-0.306 0-25.269 20.442-45.764 45.691-45.85h429.935c7.030 0 12.838-5.655 12.838-12.838 0-7.030-5.808-12.838-12.838-12.838h-429.927c-39.39 0.26-71.222 32.252-71.222 71.679 0 0.054 0 0.109 0 0.163v-0.008 661.779c0 39.737 31.943 71.833 71.221 71.833h965.617c39.39-0.26 71.222-32.252 71.222-71.679 0-0.054 0-0.109 0-0.163v0.008zM1094.763 886.333v0.611c0.001 0.091 0.001 0.198 0.001 0.306 0 25.269-20.442 45.764-45.691 45.85h-965.625c0 0-0.001 0-0.001 0-25.323 0-45.851-20.528-45.851-45.851 0-0.107 0-0.215 0.001-0.322v0.016-0.611zM349.23 601.141c-50.436 0-91.701 41.571-91.701 92.619s41.266 92.619 91.701 92.619c50.589 0 91.701-41.571 91.701-92.619s-41.113-92.619-91.701-92.619zM349.23 626.818c36.681 0 66.331 29.956 66.331 66.942 0 0.091 0.001 0.199 0.001 0.306 0 36.695-29.661 66.463-66.315 66.636h-0.017c-36.605-0.26-66.179-29.994-66.179-66.635 0-0.108 0-0.216 0.001-0.324v0.017c0-0.091-0.001-0.199-0.001-0.307 0-36.641 29.574-66.375 66.154-66.635h0.025zM132.203 390.534l338.837 184.473c1.725 0.936 3.778 1.487 5.959 1.487 3.683 0 7-1.57 9.317-4.076l0.008-0.008 69.387-75.042 260.432 157.574c1.87 1.146 4.133 1.825 6.555 1.825 3.771 0 7.158-1.645 9.481-4.258l0.011-0.013 145.653-162.923c4.738-5.349 4.279-13.45-0.917-18.34-2.238-2.022-5.22-3.26-8.49-3.26-3.799 0-7.208 1.67-9.532 4.315l-0.012 0.014-138.622 155.128-246.83-149.321 33.318-36.222c4.891-5.196 4.585-13.297-0.611-18.187-2.267-2.147-5.337-3.468-8.715-3.468-3.68 0-6.995 1.567-9.312 4.071l-0.008 0.008-113.71 123.339-330.125-179.735c-1.752-0.972-3.841-1.544-6.065-1.544-4.83 0-9.030 2.7-11.173 6.673l-0.033 0.067c-0.945 1.756-1.5 3.843-1.5 6.059 0 4.864 2.673 9.104 6.631 11.33l0.065 0.034zM828.37 211.869c2.152-4.358 3.665-9.426 4.261-14.771l0.019-0.207c0-3.362-1.376-6.266-3.974-9.17-2.414-2.455-5.771-3.977-9.484-3.977-0.105 0-0.209 0.001-0.313 0.004h0.015c-0.157-0.008-0.341-0.012-0.526-0.012-3.765 0-7.112 1.792-9.235 4.569l-0.021 0.028c-1.274 1.765-2.402 3.777-3.289 5.915l-0.073 0.198-3.21 7.642-6.725 17.729h-56.549l-6.725-18.035c-2.598-7.030-4.891-11.921-6.725-14.367s-4.891-3.668-9.017-3.668c-0.018 0-0.038 0-0.059 0-3.691 0-7.026 1.521-9.414 3.971l-0.003 0.003c-2.409 2.209-3.927 5.355-3.974 8.856v0.008c0 1.987 0.306 3.974 0.917 6.113 0.611 1.987 1.528 4.738 3.057 8.406l35.764 91.396 3.668 9.476c1.528 3.668 3.057 6.725 4.585 9.17s3.668 4.585 6.266 5.961c2.751 1.528 5.961 2.293 9.781 2.293 3.974 0 7.183-0.764 9.934-2.293 2.598-1.528 4.585-3.362 6.266-5.808 1.528-2.445 3.057-4.891 4.127-7.642l4.279-10.851zM788.174 241.213l-20.939 58.078-20.633-58.078zM878.806 325.12c2.751-2.904 3.974-7.183 3.974-12.991v-110.959c0-5.808-1.223-10.24-3.974-13.144-2.438-2.64-5.916-4.287-9.779-4.287-0.162 0-0.323 0.003-0.484 0.009l0.023-0.001c-0.093-0.002-0.201-0.004-0.311-0.004-3.891 0-7.383 1.711-9.764 4.421l-0.013 0.015c-2.598 2.904-3.974 7.183-3.974 12.991v110.959c0 5.655 1.376 10.087 3.974 12.991 2.387 2.637 5.823 4.287 9.644 4.287 0.156 0 0.311-0.003 0.466-0.008l-0.022 0.001c4.279 0 7.642-1.528 10.24-4.279z" />
<glyph unicode="&#xe909;" glyph-name="chevron-down" d="M961.714 489.143l-424-423.429c-14.286-14.286-37.143-14.286-51.429 0l-424 423.429c-14.286 14.286-14.286 37.714 0 52l94.857 94.286c14.286 14.286 37.143 14.286 51.429 0l303.429-303.429 303.429 303.429c14.286 14.286 37.143 14.286 51.429 0l94.857-94.286c14.286-14.286 14.286-37.714 0-52z" />
<glyph unicode="&#xe90a;" glyph-name="close" horiz-adv-x="805" d="M741.714 195.428c0-14.286-5.714-28.571-16-38.857l-77.714-77.714c-10.286-10.286-24.571-16-38.857-16s-28.571 5.714-38.857 16l-168 168-168-168c-10.286-10.286-24.571-16-38.857-16s-28.571 5.714-38.857 16l-77.714 77.714c-10.286 10.286-16 24.571-16 38.857s5.714 28.571 16 38.857l168 168-168 168c-10.286 10.286-16 24.571-16 38.857s5.714 28.571 16 38.857l77.714 77.714c10.286 10.286 24.571 16 38.857 16s28.571-5.714 38.857-16l168-168 168 168c10.286 10.286 24.571 16 38.857 16s28.571-5.714 38.857-16l77.714-77.714c10.286-10.286 16-24.571 16-38.857s-5.714-28.571-16-38.857l-168-168 168-168c10.286-10.286 16-24.571 16-38.857z" />
<glyph unicode="&#xe90b;" glyph-name="menu" horiz-adv-x="878" d="M877.714 182.857v-73.143c0-20-16.571-36.571-36.571-36.571h-804.571c-20 0-36.571 16.571-36.571 36.571v73.143c0 20 16.571 36.571 36.571 36.571h804.571c20 0 36.571-16.571 36.571-36.571zM877.714 475.428v-73.143c0-20-16.571-36.571-36.571-36.571h-804.571c-20 0-36.571 16.571-36.571 36.571v73.143c0 20 16.571 36.571 36.571 36.571h804.571c20 0 36.571-16.571 36.571-36.571zM877.714 768v-73.143c0-20-16.571-36.571-36.571-36.571h-804.571c-20 0-36.571 16.571-36.571 36.571v73.143c0 20 16.571 36.571 36.571 36.571h804.571c20 0 36.571-16.571 36.571-36.571z" />
<glyph unicode="&#xe90c;" glyph-name="user" horiz-adv-x="731" d="M731.429 151.428c0-83.429-54.857-151.429-121.714-151.429h-488c-66.857 0-121.714 68-121.714 151.429 0 150.286 37.143 324 186.857 324 46.286-45.143 109.143-73.143 178.857-73.143s132.571 28 178.857 73.143c149.714 0 186.857-173.714 186.857-324zM585.143 658.286c0-121.143-98.286-219.429-219.429-219.429s-219.429 98.286-219.429 219.429 98.286 219.429 219.429 219.429 219.429-98.286 219.429-219.429z" />
<glyph unicode="&#xe90d;" glyph-name="arrow-right" horiz-adv-x="987" d="M987.429 440.571c0-5.143-2.286-10.286-5.714-13.714l-219.429-202.286c-5.714-5.143-13.143-6.286-20-3.429-6.286 2.857-10.857 9.143-10.857 16.571v128h-713.143c-10.286 0-18.286 8-18.286 18.286v109.714c0 10.286 8 18.286 18.286 18.286h713.143v128c0 7.429 4 13.714 10.857 16.571s14.286 1.714 20-2.857l219.429-200c3.429-3.429 5.714-8 5.714-13.143v0z" />
</font></defs></svg>